
		CNOP	0,4
		
MUSIC_ON:	dc.w	0

		CNOP	0,4
		
SOUND_ON:	dc.w	0

		CNOP	0,4
		
MUSIC_DELAY_TIME:	dc.w	0

		CNOP	0,4
		
TOGGLE_CHANNEL:		dc.w	2

		CNOP	0,4
		
SFX_DISABLE_DESTROY_ENEMY:	dc.w	0

SAMPLES_STRUCT:
	rept	NUMBER_SAMPLES
	dc.l	0	; Pointer	4	0
	dc.w	0	; length	2	4
	dc.w	0	; Period	2	6
	dc.w	63	; volule	2	8
	dc.b	-1	; channel	1	10
	dc.b	0	; priority	1	11
	dc.w	0	; unused	2	12
	dc.l	0	; unused	4	
	endr

SAMPLE_KEY:	equ	336	; E2

		CNOP	0,4

; 			Sound asset file, Load address in chip,priorit,period 
	IFNE	ENABLE_SFX
SAMPLE_MAP:	
		dc.l	63,SNDPTR_RYGAR_DISKARM_NOPOWER,100,SAMPLE_KEY	; 1 Disk Armor with no power
		dc.l	63,SNDPTR_RYGAR_JUMP,100,SAMPLE_KEY		; 2 Rygar Jump sample.
		dc.l	63,SNDPTR_RYGAR_FIREBALL,100,SAMPLE_KEY	; 
		dc.l	63,SNDPTR_RYGAR_RIDERFALL,100,SAMPLE_KEY	; 	
		dc.l	63,SNDPTR_RYGAR_RYGARDEAD,100,SAMPLE_KEY	; 3	
		dc.l	63,SNDPTR_RYGAR_SWEEP,90,SAMPLE_KEY		; 4
		dc.l	63,SNDPTR_RYGAR_SQUIRREL,90,SAMPLE_KEY		
		dc.l	63,SNDPTR_RYGAR_LAND_ON_ENEMY,100,SAMPLE_KEY	; 5	
		dc.l	63,SNDPTR_RYGAR_DESTROY,100,SAMPLE_KEY		; 6
		dc.l	63,SNDPTR_RYGAR_GRIFFIN,90,SAMPLE_KEY		
		dc.l	33,SNDPTR_RYGAR_STONE_HIT,100,SAMPLE_KEY	;7	
		dc.l	63,SNDPTR_RYGAR_LAVARISE,90,SAMPLE_KEY		
		dc.l	63,SNDPTR_RYGAR_DISKWHIP,95,SAMPLE_KEY		;8
		dc.l	63,SNDPTR_RYGAR_PICKUP,100,SAMPLE_KEY		;9
		dc.l	63,SNDPTR_RYGAR_ITEMDROP,100,SAMPLE_KEY	;10		
		dc.l	63,SNDPTR_RYGAR_RYGARWIN,100,SAMPLE_KEY	;10
		dc.l	63,SNDPTR_RYGAR_GROWL,100,SAMPLE_KEY	;10
		dc.l	-1	
	ENDC


;
;Key is G
;
;Sample	Size	Use	
;002	5.5	Fire Disk Armour	Yes
;003	5.8	Jump	Yes
;005	19.7	Lava Fire Up and Drop (shorten)	Maybe
;006	11	Rider Drop	Yes
;008	21.6	Rygar Dead (Shorten)	Yes
;012	4	Sweep Sound	Yes
;014	16.4	Squirell Attack	Yes
;015	4.0	Enemy Hit (Jump)	Yes
;016	3.8	Enemy Hit	Yes
;017	7.5	Griffin Life	Yes
;022	7.4	Big Enemy Hit (Can Shorten)	Yes
;023	9.2	Lavaman to the ground	Yes
;031	7	Whip Disk Armour Attack	Yes (with long power)
;040	9.8	Pick up Item (shorten)	Yes
;043	14.7	Item Drop	Yes
;	<150.0		

