*
* CIA hardware registers
*
* Written by Frank Wille in 2013.
*

CIAA		equ	$bfe001
CIAB		equ	$bfd000

; registers
CIAPRA		equ	$000
CIAPRB		equ	$100
CIADDRA		equ	$200
CIADDRB		equ	$300
CIATALO		equ	$400
CIATAHI		equ	$500
CIATBLO		equ	$600
CIATBHI		equ	$700
CIATODLO	equ	$800
CIATODMID	equ	$900
CIATODHI	equ	$a00
CIASDR		equ	$c00
CIAICR		equ	$d00
CIACRA		equ	$e00
CIACRB		equ	$f00

CIAAPRA:	equ	$bfe001

